v 20130925 2
C 40000 40000 0 0 0 title-B.sym
C 52200 42900 1 0 1 DS1821.sym
{
T 52100 44900 5 10 0 0 0 6 1
device=DS1821
T 52100 45100 5 10 0 0 0 6 1
footprint=TO92
T 50700 44400 5 10 0 1 0 0 1
refdes=U2
}
C 43900 42900 1 0 0 PIC24FV16KM202.sym
{
T 44200 49150 5 10 0 0 0 0 1
device=PIC24FV16KM202
T 44200 49550 5 10 0 0 0 0 1
footprint=DIP28
T 46500 49000 5 10 0 1 0 0 1
refdes=U1
}
C 43000 44200 1 90 0 capacitor-1.sym
{
T 42300 44400 5 10 0 0 90 0 1
device=CAPACITOR
T 42100 44400 5 10 0 0 90 0 1
symversion=0.1
T 42600 44900 5 10 0 1 180 0 1
refdes=C1
T 42400 44300 5 10 1 1 0 0 1
value=0.1u
}
C 47300 45100 1 0 0 capacitor-2.sym
{
T 47500 45800 5 10 0 0 0 0 1
device=POLARIZED_CAPACITOR
T 47500 46000 5 10 0 0 0 0 1
symversion=0.1
T 47800 45500 5 10 0 1 0 0 1
refdes=C2
T 47300 45100 5 10 1 1 0 0 1
value=10u
}
C 42700 48800 1 90 0 resistor-1.sym
{
T 42300 49100 5 10 0 0 90 0 1
device=RESISTOR
T 42400 49000 5 10 0 1 180 0 1
refdes=R1
T 42100 49500 5 10 1 1 0 0 1
value=47K
}
C 41900 44900 1 0 1 connector6-2.sym
{
T 41600 47750 5 10 0 0 0 6 1
device=CONNECTOR_6
T 41600 47950 5 10 0 0 0 6 1
footprint=SIP6N
T 41200 47800 5 10 0 1 0 0 1
refdes=CONN1
T 41100 46200 5 10 1 1 90 0 1
description=PICkit
}
C 48501 46000 1 0 0 lcd-2x16a.sym
N 41900 46900 43100 46900 8
N 43100 42000 43100 46900 8
N 43100 43700 43900 43700 8
N 41900 47300 42595 47306 4
N 42595 47306 42595 48506 4
N 42595 48506 43900 48500 4
N 41900 46500 42800 46500 4
N 42800 45100 42800 46500 4
N 43900 45700 42800 45700 4
N 47700 47700 47000 47700 4
N 47600 46850 47600 47300 4
N 47600 47300 47000 47300 4
N 47500 46550 47500 46900 4
N 47500 46900 47000 46900 4
N 47400 46250 47400 46500 4
N 47400 46500 47000 46500 4
C 48200 50000 1 180 0 resistor-variable-1.sym
{
T 47400 49100 5 10 0 0 180 0 1
device=VARIABLE_RESISTOR
T 48200 50200 5 10 0 1 180 0 1
refdes=R2
T 47200 49600 5 10 1 1 0 0 1
value=10k
}
N 47300 46100 47300 47450 4
N 47300 46100 47000 46100 4
N 47200 45700 47200 48050 4
N 47200 45700 47000 45700 4
N 48400 45300 48400 49900 4
N 47300 45300 47000 45300 4
N 48550 48650 48400 48650 4
N 43085 46900 43100 49900 8
N 42600 49900 47000 49900 8
N 47700 48350 47700 49400 4
N 42595 48500 42600 48500 4
N 42600 48500 42600 48800 4
N 42600 49700 42600 49900 8
N 41900 46100 43300 46100 4
N 43300 46100 43300 46900 4
N 43300 46900 43900 46900 4
N 43900 47299 43600 47299 4
N 43600 47299 43600 45900 4
N 43600 45900 42600 45900 4
N 42600 45900 42600 45700 4
N 42600 45700 41900 45700 4
N 42800 44200 42800 43900 8
N 42800 43900 43100 43900 8
N 43100 42000 50200 42000 8
N 50200 42000 50200 44600 8
N 50200 44600 51900 44600 8
N 53300 42600 53300 45300 4
N 49800 42600 53300 42600 4
N 50400 43800 49300 43800 4
N 49300 43300 49300 43800 4
N 49300 43700 47000 43700 4
N 48200 49900 48400 49900 4
N 47700 47150 47700 47700 4
C 51900 44400 1 0 0 battery-3.sym
{
T 52200 45100 5 10 0 0 0 0 1
device=BATTERY
T 52200 44900 5 10 0 1 0 0 1
refdes=B1
T 52200 45350 5 10 0 0 0 0 1
symversion=0.1
T 51900 44900 5 10 1 1 0 0 1
value=4.5V
}
N 53000 44600 53300 44600 4
C 41600 43600 1 0 0 switch-pushbutton-no-1.sym
{
T 42000 43900 5 10 0 1 0 0 1
refdes=S1
T 42000 44200 5 10 0 0 0 0 1
device=SWITCH_PUSHBUTTON_NO
}
T 50100 40400 6 10 1 0 0 0 1
Thermometer.sch
T 50600 40100 9 10 1 0 0 0 1
1
T 51800 40100 9 10 1 0 0 0 1
1
T 54100 40400 21 10 1 0 0 0 1
4
T 54000 40100 15 10 1 0 0 0 1
John J. McDonough, WB8RCR
T 50500 40900 1 18 1 0 0 0 1
Digital Thermometer (PIC24FV16KM202)
U 43900 45700 42800 45700 10 -1
U 42800 45000 42800 46500 10 0
U 42800 46500 41900 46500 10 0
U 51500 42600 53300 42600 10 0
U 53300 42600 53300 45300 10 1
U 48400 45300 48400 49900 10 0
U 48400 49900 48200 49900 10 0
U 53000 44600 53300 44600 10 0
U 42800 46500 42800 49000 10 0
U 48400 49300 42800 49300 10 0
U 42800 49300 42800 49000 10 0
U 48398 48652 48555 48652 10 0
U 41900 46900 43100 46900 8 0
U 43100 46900 43100 49900 8 0
U 43100 46900 43100 42000 8 0
U 43100 42000 50200 42000 8 0
U 50200 42000 50200 44600 8 0
U 50200 44600 51900 44600 8 -1
U 43900 43700 43100 43700 8 0
U 42600 49700 42600 49900 8 0
U 42600 49900 47000 49900 8 -1
U 43103 43907 42799 43907 8 0
U 42799 43907 42799 44203 8 0
C 48900 42400 1 0 0 led-1.sym
{
T 49700 43000 5 10 0 0 0 0 1
device=LED
T 49700 42800 5 10 0 1 0 0 1
refdes=LED1
T 49700 43200 5 10 0 0 0 0 1
symversion=0.1
}
C 48900 42700 1 180 0 resistor-1.sym
{
T 48600 42300 5 10 0 0 180 0 1
device=RESISTOR
T 48700 42400 5 10 0 1 270 0 1
refdes=R4
T 48600 42900 5 10 1 1 180 0 1
value=412
}
N 47000 43300 47400 43300 4
N 47400 42600 47400 43300 4
U 49800 42600 51400 42600 10 0
U 51400 42600 51500 42600 10 0
N 48550 48955 48550 48950 8
T 52800 47400 9 14 1 0 0 0 1
1
T 53037 47401 9 14 1 0 0 0 1
2
T 53272 47401 9 14 1 0 0 0 1
3
T 53764 47400 9 14 1 0 0 0 1
F
T 53548 47500 9 14 1 0 0 0 1
ᵒ
T 51282 46699 9 14 1 0 0 0 1
1
T 51528 46698 9 14 1 0 0 0 1
2
T 51779 46700 9 14 1 0 0 0 1
3
T 54526 46700 9 14 1 0 0 0 1
1
T 54774 46700 9 14 1 0 0 0 1
2
T 55019 46702 9 14 1 0 0 0 1
3
T 53758 46698 9 14 1 0 0 0 1
H
T 54069 46698 9 14 1 0 0 0 1
i
T 52276 46696 9 14 1 0 0 0 1
L
T 52531 46699 9 14 1 0 0 0 1
o
N 48551 46250 47400 46250 4
N 48551 46550 47500 46550 4
N 48551 46850 47600 46850 4
N 48551 47150 47700 47150 4
N 48551 47450 47300 47450 4
N 48551 48350 47700 48350 4
N 47000 48950 47000 49900 4
N 48551 48950 47000 48950 4
U 48540 48947 47005 48949 8 0
U 47001 48947 47002 49906 8 0
C 49000 45600 1 0 0 resistor-1.sym
{
T 49300 46000 5 10 0 0 0 0 1
device=RESISTOR
T 49200 45900 5 10 0 1 0 0 1
refdes=R5
T 49500 45400 5 10 1 1 0 0 1
value=3.32K
}
N 48551 48050 47200 48050 4
N 48551 47750 48000 47750 4
N 48000 45700 48000 47750 4
N 48000 45700 49000 45700 4
N 49900 45700 50500 45700 4
N 50500 45300 50500 45700 4
N 48200 45300 53300 45300 4
U 48200 45300 53300 45300 10 0
C 49300 43200 1 0 0 resistor-1.sym
{
T 49600 43600 5 10 0 0 0 0 1
device=RESISTOR
T 49500 43500 5 10 0 1 0 0 1
refdes=R5
T 49600 43500 5 10 1 1 0 0 1
value=4.7K
}
N 48000 42600 47400 42600 4
N 51500 42900 51500 42600 4
U 51500 42900 51500 42600 10 0
C 42800 43100 1 180 0 resistor-1.sym
{
T 42500 42700 5 10 0 0 180 0 1
device=RESISTOR
T 42600 42800 5 10 0 1 270 0 1
refdes=R4
T 42500 43300 5 10 1 1 180 0 1
value=412
}
N 42600 43600 42600 44100 4
N 42600 44100 42200 44100 4
N 42200 44100 42200 47300 4
N 42200 47300 41900 47300 4
N 42800 43000 43400 43000 4
N 43400 43000 43400 45700 4
N 41600 43600 41600 43000 4
N 41600 43000 41900 43000 4
C 54500 43700 1 0 0 USBgeneric.sym
{
T 54500 45300 5 10 0 1 0 0 1
device=USB
T 55100 45400 5 10 0 1 0 0 1
refdes=J?
}
N 54500 45100 51500 45100 4
N 51500 45100 51500 44800 4
C 51500 44800 1 180 0 busripper-1.sym
{
T 51500 44400 5 8 0 0 180 0 1
device=none
}
N 53300 44200 54500 44200 4
C 54200 44200 1 90 0 capacitor-1.sym
{
T 53500 44400 5 10 0 0 90 0 1
device=CAPACITOR
T 53700 44400 5 10 0 1 90 0 1
refdes=C?
T 53300 44400 5 10 0 0 90 0 1
symversion=0.1
T 53600 44800 5 10 1 1 0 0 1
value=0.1u
}
